<?xml version="1.0" encoding="utf-8"?>
<!-- Generator: Adobe Illustrator 16.0.0, SVG Export Plug-In . SVG Version: 6.00 Build 0)  -->
<!DOCTYPE svg PUBLIC "-//W3C//DTD SVG 1.1//EN" "http://www.w3.org/Graphics/SVG/1.1/DTD/svg11.dtd">
<svg version="1.1" id="Layer_1" xmlns="http://www.w3.org/2000/svg" xmlns:xlink="http://www.w3.org/1999/xlink" x="0px" y="0px"
	 width="418.45px" height="463.548px" viewBox="0 0 418.45 463.548" enable-background="new 0 0 418.45 463.548"
	 xml:space="preserve">
<g>
	<polygon fill="#4860AC" points="306.401,177.753 193.338,110.793 6.261,463.548 13.36,459.768 418.45,244.112 	"/>
	<path fill="#4860AC" d="M6.261,0L418.45,244.112c0,0-75.438,49.793-163.612,40.804C131.072,272.294-1.076,181.417,6.261,0z"/>
	<path fill="#4860AC" d="M6.261,0L418.45,244.112C418.45,244.112,117.646,280.796,6.261,0z"/>
	<polygon fill="#4860AC" points="13.36,459.768 418.45,244.112 306.401,177.753 	"/>
</g>
</svg>
